{
  "log" : {
    "version" : "1.2",
    "pages" : [ ],
    "entries" : [ {
      "startedDateTime" : "2023-10-25T20:18:00.718Z",
      "request" : {
        "method" : "POST",
        "url" : "https://demo-app.online/api/login",
        "httpVersion" : "",
        "cookies" : [ ],
        "headers" : [ {
          "name" : "Content-Type",
          "value" : "application/x-www-form-urlencoded"
        } ],
        "queryString" : [ ],
        "postData" : {
          "mimeType" : "application/x-www-form-urlencoded",
          "params" : [ {
            "name" : "email",
            "value" : "sdivo164@gmail.com",
            "comment" : ""
          }, {
            "name" : "password",
            "value" : "ubah1234",
            "comment" : ""
          } ],
          "comment" : ""
        },
        "headersSize" : 0,
        "bodySize" : 0,
        "comment" : ""
      },
      "response" : {
        "status" : 200,
        "statusText" : "",
        "httpVersion" : "",
        "cookies" : [ ],
        "headers" : [ {
          "name" : "Keep-Alive",
          "value" : "timeout=5, max=100"
        }, {
          "name" : "date",
          "value" : "Wed, 25 Oct 2023 20:18:01 GMT"
        }, {
          "name" : "server",
          "value" : "LiteSpeed"
        }, {
          "name" : "x-ratelimit-limit",
          "value" : "60"
        }, {
          "name" : "vary",
          "value" : "Accept-Encoding"
        }, {
          "name" : "Connection",
          "value" : "Keep-Alive"
        }, {
          "name" : "x-ratelimit-remaining",
          "value" : "59"
        }, {
          "name" : "access-control-allow-origin",
          "value" : "*"
        }, {
          "name" : "x-powered-by",
          "value" : "PHP/7.4.33"
        }, {
          "name" : "content-type",
          "value" : "application/json"
        }, {
          "name" : "#status#",
          "value" : "HTTP/1.1 200 OK"
        }, {
          "name" : "cache-control",
          "value" : "no-cache, private"
        }, {
          "name" : "alt-svc",
          "value" : "h3=\":443\"; ma=2592000, h3-29=\":443\"; ma=2592000, h3-Q050=\":443\"; ma=2592000, h3-Q046=\":443\"; ma=2592000, h3-Q043=\":443\"; ma=2592000, quic=\":443\"; ma=2592000; v=\"43,46\""
        } ],
        "content" : {
          "size" : 1250,
          "mimeType" : "application/json",
          "text" : "{\"success\":{\"member_name\":\"Basic\",\"member_id\":1,\"token\":\"eyJ0eXAiOiJKV1QiLCJhbGciOiJSUzI1NiJ9.eyJhdWQiOiIzIiwianRpIjoiYmI3ZjllZTIyY2I1ZTkyZTdlOGI3MmY0MGM3OWQyZTJkZDNlNTJlMTYwNTA2N2Q3YWU2MWMyZTA4NzU4MTQ4NzE2NDE3NGQ0MTA5NjUzNDQiLCJpYXQiOjE2OTgyNjUwODAuOTU1MDA1LCJuYmYiOjE2OTgyNjUwODAuOTU1MDEyLCJleHAiOjE3Mjk4ODc0ODAuOTM3ODIxLCJzdWIiOiIxMTMxIiwic2NvcGVzIjpbXX0.WpPf1xLbU645vbHtw-N17GeilCbbC_2mXukVN8ddmTXyU2RMgPhSTWhy3zTmHJpJwnZ-5EctfM9bohc5Afshj9epob9AHCY3S5ved8o6GDEe87KSqOK1bVEV8BAIBJxyRwr1KlErSNkU5YVJ9GXG8W3snSWrQUM7bADrmqD-dkv3R1aEaDcvPWQSTshko0jG3qZ6q8WJxbMkz6IA3TvZX3rO7qQkb0V-PB9NxUwLmZPFq1rasFNovq95hqiD3a_DAhpXMhrzJjHX99iWK7Mo7z3bSxmxrq89-8mgssIxR2kX6OKOcrj16ykN7tfy24_PtqdJoaj1Xb1ic97hMUbLCPndSZwteB8uIsGH31A54w59f9JvOmEKVDjhQmTU5M1BNa__A2fGGoV1YNO7ee3JPz2yBR9C7wqF_zzMgg7SlEWEfkLBvJHgZmh3oOjdLNab96HC_Iq0N16odaxt_L-GOVlhIkPP0Z1dyq9wgt_v1IBO37prfamDbJc_lPAl2YBEVNqyyWFQX4xFiNogad6vrzVtRl-Ci6AuJ2zfIXgQLJK0WshxVWjdN5fukD2HdMEj3Cx6UYeZvr-WvejXGuqD244tSry9l9pN0gh3B7syl9BZQY_C96FLydRJfs90zgK-xttmL1nYN4ctv-VUHUbHArNuYJ3MVjg9UHIFbmDlp_k\",\"name\":\"testing\",\"email\":\"sdivo164@gmail.com\",\"birth_date\":\"1995-05-04\",\"whatsapp\":\"082173191420\",\"referral\":\"65ZLR\",\"points\":\"0\",\"bio\":\"Software Dev\",\"position\":\"mobile dev\",\"photo\":null,\"isPartner\":false}}",
          "comment" : ""
        },
        "redirectURL" : "",
        "headersSize" : 439,
        "bodySize" : -1,
        "comment" : ""
      },
      "cache" : { },
      "timings" : {
        "comment" : "",
        "connect" : 0,
        "ssl" : -1,
        "send" : 0,
        "wait" : 0,
        "receive" : 0,
        "blocked" : -1,
        "dns" : -1
      },
      "comment" : "",
      "_katalonRequestInformation" : {
        "name" : "0",
        "testObjectId" : "Object Repository/API/Login/Login",
        "harId" : "6d836f87-7e56-4953-a7f2-dec5fc535883",
        "reportFolder" : null
      },
      "time" : 0
    } ],
    "comment" : ""
  }
}