{
  "log" : {
    "version" : "1.2",
    "pages" : [ ],
    "entries" : [ {
      "startedDateTime" : "2023-10-25T20:18:08.263Z",
      "request" : {
        "method" : "POST",
        "url" : "https://demo-app.online/api/login",
        "httpVersion" : "",
        "cookies" : [ ],
        "headers" : [ {
          "name" : "Content-Type",
          "value" : "application/x-www-form-urlencoded"
        } ],
        "queryString" : [ ],
        "postData" : {
          "mimeType" : "application/x-www-form-urlencoded",
          "params" : [ {
            "name" : "email",
            "value" : "blablabla@gmail.com",
            "comment" : ""
          }, {
            "name" : "password",
            "value" : "ubah1234",
            "comment" : ""
          } ],
          "comment" : ""
        },
        "headersSize" : 0,
        "bodySize" : 0,
        "comment" : ""
      },
      "response" : {
        "status" : 400,
        "statusText" : "",
        "httpVersion" : "",
        "cookies" : [ ],
        "headers" : [ {
          "name" : "Keep-Alive",
          "value" : "timeout=5, max=100"
        }, {
          "name" : "date",
          "value" : "Wed, 25 Oct 2023 20:18:09 GMT"
        }, {
          "name" : "server",
          "value" : "LiteSpeed"
        }, {
          "name" : "x-ratelimit-limit",
          "value" : "60"
        }, {
          "name" : "vary",
          "value" : "Accept-Encoding"
        }, {
          "name" : "Connection",
          "value" : "Keep-Alive"
        }, {
          "name" : "x-ratelimit-remaining",
          "value" : "58"
        }, {
          "name" : "access-control-allow-origin",
          "value" : "*"
        }, {
          "name" : "x-powered-by",
          "value" : "PHP/7.4.33"
        }, {
          "name" : "content-type",
          "value" : "application/json"
        }, {
          "name" : "#status#",
          "value" : "HTTP/1.1 400 Bad Request"
        }, {
          "name" : "cache-control",
          "value" : "no-cache, private"
        }, {
          "name" : "alt-svc",
          "value" : "h3=\":443\"; ma=2592000, h3-29=\":443\"; ma=2592000, h3-Q050=\":443\"; ma=2592000, h3-Q046=\":443\"; ma=2592000, h3-Q043=\":443\"; ma=2592000, quic=\":443\"; ma=2592000; v=\"43,46\""
        } ],
        "content" : {
          "size" : 23,
          "mimeType" : "application/json",
          "text" : "{\"error\":\"NotVerified\"}",
          "comment" : ""
        },
        "redirectURL" : "",
        "headersSize" : 439,
        "bodySize" : -1,
        "comment" : ""
      },
      "cache" : { },
      "timings" : {
        "comment" : "",
        "connect" : 0,
        "ssl" : -1,
        "send" : 0,
        "wait" : 0,
        "receive" : 0,
        "blocked" : -1,
        "dns" : -1
      },
      "comment" : "",
      "_katalonRequestInformation" : {
        "name" : "1",
        "testObjectId" : "Object Repository/API/Login/Login 2",
        "harId" : "c0fcfa58-801d-461a-80ef-0c8549b74489",
        "reportFolder" : null
      },
      "time" : 0
    } ],
    "comment" : ""
  }
}